433 HW4
…
flights %>%
  summarize(sched_dep_time, dep_delay)

## # A tibble: 336,776 x 2
##    sched_dep_time dep_delay
##             <int>     <dbl>
##  1            515         2
##  2            529         4
##  3            540         2
##  4            545        -1
##  5            600        -6
##  6            558        -4
##  7            600        -5
##  8            600        -3
##  9            600        -3
## 10            600        -2
## # ... with 336,766 more rows
…
flights %>%
  summarize(month, sched_dep_time, dep_delay)

## # A tibble: 336,776 x 3
##    month sched_dep_time dep_delay
##    <int>          <int>     <dbl>
##  1     1            515         2
##  2     1            529         4
##  3     1            540         2
##  4     1            545        -1
##  5     1            600        -6
##  6     1            558        -4
##  7     1            600        -5
##  8     1            600        -3
##  9     1            600        -3
## 10     1            600        -2
## # ... with 336,766 more rows
…
flights %>%
  summarize(origin, sched_dep_time, dep_delay)

## # A tibble: 336,776 x 3
##    origin sched_dep_time dep_delay
##    <chr>           <int>     <dbl>
##  1 EWR               515         2
##  2 LGA               529         4
##  3 JFK               540         2
##  4 JFK               545        -1
##  5 LGA               600        -6
##  6 EWR               558        -4
##  7 EWR               600        -5
##  8 LGA               600        -3
##  9 JFK               600        -3
## 10 LGA               600        -2
## # ... with 336,766 more rows
…
flights %>%
  summarize(carrier, sched_dep_time, dep_delay)

## # A tibble: 336,776 x 3
##    carrier sched_dep_time dep_delay
##    <chr>            <int>     <dbl>
##  1 UA                 515         2
##  2 UA                 529         4
##  3 AA                 540         2
##  4 B6                 545        -1
##  5 DL                 600        -6
##  6 UA                 558        -4
##  7 B6                 600        -5
##  8 EV                 600        -3
##  9 B6                 600        -3
## 10 AA                 600        -2
## # ... with 336,766 more rows
