Untitled
…
## The following objects are masked from 'package:stats':
## 
##     filter, lag

## The following objects are masked from 'package:base':
## 
##     intersect, setdiff, setequal, union

# install.packages("nycflights13")
library(nycflights13)
library(ggplot2)

flights

## # A tibble: 336,776 x 19
##     year month   day dep_time sched_dep_time dep_delay arr_time sched_arr_time
##    <int> <int> <int>    <int>          <int>     <dbl>    <int>          <int>
##  1  2013     1     1      517            515         2      830            819
##  2  2013     1     1      533            529         4      850            830
##  3  2013     1     1      542            540         2      923            850
##  4  2013     1     1      544            545        -1     1004           1022
##  5  2013     1     1      554            600        -6      812            837
##  6  2013     1     1      554            558        -4      740            728
##  7  2013     1     1      555            600        -5      913            854
##  8  2013     1     1      557            600        -3      709            723
##  9  2013     1     1      557            600        -3      838            846
## 10  2013     1     1      558            600        -2      753            745
## # ... with 336,766 more rows, and 11 more variables: arr_delay <dbl>,
## #   carrier <chr>, flight <int>, tailnum <chr>, origin <chr>, dest <chr>,
## #   air_time <dbl>, distance <dbl>, hour <dbl>, minute <dbl>, time_hour <dttm>

?flights

## starting httpd help server ...

##  done

flights[,5:10]

## # A tibble: 336,776 x 6
##    sched_dep_time dep_delay arr_time sched_arr_time arr_delay carrier
##             <int>     <dbl>    <int>          <int>     <dbl> <chr>  
##  1            515         2      830            819        11 UA     
##  2            529         4      850            830        20 UA     
##  3            540         2      923            850        33 AA     
##  4            545        -1     1004           1022       -18 B6     
##  5            600        -6      812            837       -25 DL     
##  6            558        -4      740            728        12 UA     
##  7            600        -5      913            854        19 B6     
##  8            600        -3      709            723       -14 EV     
##  9            600        -3      838            846        -8 B6     
## 10            600        -2      753            745         8 AA     
## # ... with 336,766 more rows
…
# template:
# verb(dataFrame, action) produces a new data frame

#########################
####  filter ############
#########################

# Select all flights on January 1st!
flights

## # A tibble: 336,776 x 19
##     year month   day dep_time sched_dep_time dep_delay arr_time sched_arr_time
##    <int> <int> <int>    <int>          <int>     <dbl>    <int>          <int>
##  1  2013     1     1      517            515         2      830            819
##  2  2013     1     1      533            529         4      850            830
##  3  2013     1     1      542            540         2      923            850
##  4  2013     1     1      544            545        -1     1004           1022
##  5  2013     1     1      554            600        -6      812            837
##  6  2013     1     1      554            558        -4      740            728
##  7  2013     1     1      555            600        -5      913            854
##  8  2013     1     1      557            600        -3      709            723
##  9  2013     1     1      557            600        -3      838            846
## 10  2013     1     1      558            600        -2      753            745
## # ... with 336,766 more rows, and 11 more variables: arr_delay <dbl>,
## #   carrier <chr>, flight <int>, tailnum <chr>, origin <chr>, dest <chr>,
## #   air_time <dbl>, distance <dbl>, hour <dbl>, minute <dbl>, time_hour <dttm>

# lots of old ways to do this.  here is what I would have done after learning about which:
flights[which(flights[,2] == 1 & flights[,3]==1),]

## # A tibble: 842 x 19
##     year month   day dep_time sched_dep_time dep_delay arr_time sched_arr_time
##    <int> <int> <int>    <int>          <int>     <dbl>    <int>          <int>
##  1  2013     1     1      517            515         2      830            819
##  2  2013     1     1      533            529         4      850            830
##  3  2013     1     1      542            540         2      923            850
##  4  2013     1     1      544            545        -1     1004           1022
##  5  2013     1     1      554            600        -6      812            837
##  6  2013     1     1      554            558        -4      740            728
##  7  2013     1     1      555            600        -5      913            854
##  8  2013     1     1      557            600        -3      709            723
##  9  2013     1     1      557            600        -3      838            846
## 10  2013     1     1      558            600        -2      753            745
## # ... with 832 more rows, and 11 more variables: arr_delay <dbl>,
## #   carrier <chr>, flight <int>, tailnum <chr>, origin <chr>, dest <chr>,
## #   air_time <dbl>, distance <dbl>, hour <dbl>, minute <dbl>, time_hour <dttm>

# this is fast, but syntax is awkward to read and type.

# before learning about which, I would have written a for loop that goes through 
#   row by row and checks whether the row meets the conditions.  

# with dplyr
filter(flights, month == 1, day == 1)

## # A tibble: 842 x 19
##     year month   day dep_time sched_dep_time dep_delay arr_time sched_arr_time
##    <int> <int> <int>    <int>          <int>     <dbl>    <int>          <int>
##  1  2013     1     1      517            515         2      830            819
##  2  2013     1     1      533            529         4      850            830
##  3  2013     1     1      542            540         2      923            850
##  4  2013     1     1      544            545        -1     1004           1022
##  5  2013     1     1      554            600        -6      812            837
##  6  2013     1     1      554            558        -4      740            728
##  7  2013     1     1      555            600        -5      913            854
##  8  2013     1     1      557            600        -3      709            723
##  9  2013     1     1      557            600        -3      838            846
## 10  2013     1     1      558            600        -2      753            745
## # ... with 832 more rows, and 11 more variables: arr_delay <dbl>,
## #   carrier <chr>, flight <int>, tailnum <chr>, origin <chr>, dest <chr>,
## #   air_time <dbl>, distance <dbl>, hour <dbl>, minute <dbl>, time_hour <dttm>
…
## [1] FALSE

near(10^(-8), 0)

## [1] TRUE

# Boolian operations!
#   |
#   &
#   !
#   xor

filter(flights, month == 11 | month == 12)

## # A tibble: 55,403 x 19
##     year month   day dep_time sched_dep_time dep_delay arr_time sched_arr_time
##    <int> <int> <int>    <int>          <int>     <dbl>    <int>          <int>
##  1  2013    11     1        5           2359         6      352            345
##  2  2013    11     1       35           2250       105      123           2356
##  3  2013    11     1      455            500        -5      641            651
##  4  2013    11     1      539            545        -6      856            827
##  5  2013    11     1      542            545        -3      831            855
##  6  2013    11     1      549            600       -11      912            923
##  7  2013    11     1      550            600       -10      705            659
##  8  2013    11     1      554            600        -6      659            701
##  9  2013    11     1      554            600        -6      826            827
## 10  2013    11     1      554            600        -6      749            751
## # ... with 55,393 more rows, and 11 more variables: arr_delay <dbl>,
## #   carrier <chr>, flight <int>, tailnum <chr>, origin <chr>, dest <chr>,
## #   air_time <dbl>, distance <dbl>, hour <dbl>, minute <dbl>, time_hour <dttm>
…
# Whenever you start using complicated, 
# multipart expressions in filter(), 
# consider making them explicit variables instead. 
# That makes it much easier to check your work. 
# Youll learn how to create new variables shortly.

filter(flights, between(day, 1,5), month ==2)

## # A tibble: 4,250 x 19
##     year month   day dep_time sched_dep_time dep_delay arr_time sched_arr_time
##    <int> <int> <int>    <int>          <int>     <dbl>    <int>          <int>
##  1  2013     2     1      456            500        -4      652            648
##  2  2013     2     1      520            525        -5      816            820
##  3  2013     2     1      527            530        -3      837            829
##  4  2013     2     1      532            540        -8     1007           1017
##  5  2013     2     1      540            540         0      859            850
##  6  2013     2     1      552            600        -8      714            715
##  7  2013     2     1      552            600        -8      919            910
##  8  2013     2     1      552            600        -8      655            709
##  9  2013     2     1      553            600        -7      833            815
## 10  2013     2     1      553            600        -7      821            825
## # ... with 4,240 more rows, and 11 more variables: arr_delay <dbl>,
## #   carrier <chr>, flight <int>, tailnum <chr>, origin <chr>, dest <chr>,
## #   air_time <dbl>, distance <dbl>, hour <dbl>, minute <dbl>, time_hour <dttm>
…
# to practice, do problems:
# r4ds 5.2.4: 1 (all subparts) and 3.

#########################
####  arrange ###########
#########################

## changes the order of rows.  
#  I find this function to be far less useful.
#     arrange --> rows.

arrange(flights, year, month, day)

## # A tibble: 336,776 x 19
##     year month   day dep_time sched_dep_time dep_delay arr_time sched_arr_time
##    <int> <int> <int>    <int>          <int>     <dbl>    <int>          <int>
##  1  2013     1     1      517            515         2      830            819
##  2  2013     1     1      533            529         4      850            830
##  3  2013     1     1      542            540         2      923            850
##  4  2013     1     1      544            545        -1     1004           1022
##  5  2013     1     1      554            600        -6      812            837
##  6  2013     1     1      554            558        -4      740            728
##  7  2013     1     1      555            600        -5      913            854
##  8  2013     1     1      557            600        -3      709            723
##  9  2013     1     1      557            600        -3      838            846
## 10  2013     1     1      558            600        -2      753            745
## # ... with 336,766 more rows, and 11 more variables: arr_delay <dbl>,
## #   carrier <chr>, flight <int>, tailnum <chr>, origin <chr>, dest <chr>,
## #   air_time <dbl>, distance <dbl>, hour <dbl>, minute <dbl>, time_hour <dttm>

arrange(flights, month, day, desc(arr_delay))

## # A tibble: 336,776 x 19
##     year month   day dep_time sched_dep_time dep_delay arr_time sched_arr_time
##    <int> <int> <int>    <int>          <int>     <dbl>    <int>          <int>
##  1  2013     1     1      848           1835       853     1001           1950
##  2  2013     1     1     2343           1724       379      314           1938
##  3  2013     1     1     1815           1325       290     2120           1542
##  4  2013     1     1     1842           1422       260     1958           1535
##  5  2013     1     1     2115           1700       255     2330           1920
##  6  2013     1     1     2205           1720       285       46           2040
##  7  2013     1     1     2006           1630       216     2230           1848
##  8  2013     1     1     2312           2000       192       21           2110
##  9  2013     1     1     1942           1705       157     2124           1830
## 10  2013     1     1     1938           1703       155     2109           1823
## # ... with 336,766 more rows, and 11 more variables: arr_delay <dbl>,
## #   carrier <chr>, flight <int>, tailnum <chr>, origin <chr>, dest <chr>,
## #   air_time <dbl>, distance <dbl>, hour <dbl>, minute <dbl>, time_hour <dttm>

arrange(flights, desc(arr_delay))

## # A tibble: 336,776 x 19
##     year month   day dep_time sched_dep_time dep_delay arr_time sched_arr_time
##    <int> <int> <int>    <int>          <int>     <dbl>    <int>          <int>
##  1  2013     1     9      641            900      1301     1242           1530
##  2  2013     6    15     1432           1935      1137     1607           2120
##  3  2013     1    10     1121           1635      1126     1239           1810
##  4  2013     9    20     1139           1845      1014     1457           2210
##  5  2013     7    22      845           1600      1005     1044           1815
##  6  2013     4    10     1100           1900       960     1342           2211
##  7  2013     3    17     2321            810       911      135           1020
##  8  2013     7    22     2257            759       898      121           1026
##  9  2013    12     5      756           1700       896     1058           2020
## 10  2013     5     3     1133           2055       878     1250           2215
## # ... with 336,766 more rows, and 11 more variables: arr_delay <dbl>,
## #   carrier <chr>, flight <int>, tailnum <chr>, origin <chr>, dest <chr>,
## #   air_time <dbl>, distance <dbl>, hour <dbl>, minute <dbl>, time_hour <dttm>

arrange(flights, desc(is.na(arr_delay)))

## # A tibble: 336,776 x 19
##     year month   day dep_time sched_dep_time dep_delay arr_time sched_arr_time
##    <int> <int> <int>    <int>          <int>     <dbl>    <int>          <int>
##  1  2013     1     1     1525           1530        -5     1934           1805
##  2  2013     1     1     1528           1459        29     2002           1647
##  3  2013     1     1     1740           1745        -5     2158           2020
##  4  2013     1     1     1807           1738        29     2251           2103
##  5  2013     1     1     1939           1840        59       29           2151
##  6  2013     1     1     1952           1930        22     2358           2207
##  7  2013     1     1     2016           1930        46       NA           2220
##  8  2013     1     1       NA           1630        NA       NA           1815
##  9  2013     1     1       NA           1935        NA       NA           2240
## 10  2013     1     1       NA           1500        NA       NA           1825
## # ... with 336,766 more rows, and 11 more variables: arr_delay <dbl>,
## #   carrier <chr>, flight <int>, tailnum <chr>, origin <chr>, dest <chr>,
## #   air_time <dbl>, distance <dbl>, hour <dbl>, minute <dbl>, time_hour <dttm>

#########################
####  select ############
#########################

## keep only a group of variables/columns.
#   I find this function to be moderately useful.

select(flights, arr_time, sched_arr_time, arr_delay)

## # A tibble: 336,776 x 3
##    arr_time sched_arr_time arr_delay
##       <int>          <int>     <dbl>
##  1      830            819        11
##  2      850            830        20
##  3      923            850        33
##  4     1004           1022       -18
##  5      812            837       -25
##  6      740            728        12
##  7      913            854        19
##  8      709            723       -14
##  9      838            846        -8
## 10      753            745         8
## # ... with 336,766 more rows
…
# There are a number of helper functions you can use within select():
#   
# starts_with("abc"): matches names that begin with abc.
# 
# ends_with("xyz"): matches names that end with xyz.
# 
# contains("ijk"): matches names that contain ijk.
# 
# matches("(.)\\1"): selects variables that match a regular expression. This one matches any variables that contain repeated characters. Youll learn more about regular expressions in strings.
# 
# num_range("x", 1:3) matches x1, x2 and x3.

select(flights, contains("arr"))

## # A tibble: 336,776 x 4
##    arr_time sched_arr_time arr_delay carrier
##       <int>          <int>     <dbl> <chr>  
##  1      830            819        11 UA     
##  2      850            830        20 UA     
##  3      923            850        33 AA     
##  4     1004           1022       -18 B6     
##  5      812            837       -25 DL     
##  6      740            728        12 UA     
##  7      913            854        19 B6     
##  8      709            723       -14 EV     
##  9      838            846        -8 B6     
## 10      753            745         8 AA     
## # ... with 336,766 more rows

select(flights, contains("arr_"))

## # A tibble: 336,776 x 3
##    arr_time sched_arr_time arr_delay
##       <int>          <int>     <dbl>
##  1      830            819        11
##  2      850            830        20
##  3      923            850        33
##  4     1004           1022       -18
##  5      812            837       -25
##  6      740            728        12
##  7      913            854        19
##  8      709            723       -14
##  9      838            846        -8
## 10      753            745         8
## # ... with 336,766 more rows

rename(flights, tail_num = tailnum)

## # A tibble: 336,776 x 19
##     year month   day dep_time sched_dep_time dep_delay arr_time sched_arr_time
##    <int> <int> <int>    <int>          <int>     <dbl>    <int>          <int>
##  1  2013     1     1      517            515         2      830            819
##  2  2013     1     1      533            529         4      850            830
##  3  2013     1     1      542            540         2      923            850
##  4  2013     1     1      544            545        -1     1004           1022
##  5  2013     1     1      554            600        -6      812            837
##  6  2013     1     1      554            558        -4      740            728
##  7  2013     1     1      555            600        -5      913            854
##  8  2013     1     1      557            600        -3      709            723
##  9  2013     1     1      557            600        -3      838            846
## 10  2013     1     1      558            600        -2      753            745
## # ... with 336,766 more rows, and 11 more variables: arr_delay <dbl>,
## #   carrier <chr>, flight <int>, tail_num <chr>, origin <chr>, dest <chr>,
## #   air_time <dbl>, distance <dbl>, hour <dbl>, minute <dbl>, time_hour <dttm>
…
